id;prenom;nom;parcours_id
828319908;Daniel;Sullivan;1
788254377;Aldus;Ferguson;1
415939736;Samantha;Kelley;1
482082970;Amelia;Roberts;1
144175889;Richard;Thompson;1
434656523;Amy;Crawford;1
101942477;Honey;Gibson;1
149618053;Mira;Casey;1
135855583;April;Andrews;1
697907942;Gianna;Warren;1
186736174;Eddy;Douglas;8
276524200;Vivian;Thomas;8
147939694;Lucas;Johnson;8
412421702;Ryan;Wells;8
116465920;Arianna;Cunningham;8
112900585;Isabella;Brown;9
248901879;Melissa;Brown;9
125951241;Charlotte;Higgins;9
565087127;Sienna;Howard;9
403785018;Samantha;Stevens;9
858965478;Leo;Brossin;9
